\relax 
\providecommand\zref@newlabel[2]{}
\providecommand\hyper@newdestlabel[2]{}
\providecommand{\transparent@use}[1]{}
\bbl@beforestart
\catcode `"\active 
\catcode `<\active 
\catcode `>\active 
\@nameuse{es@quoting}
\providecommand\HyperFirstAtBeginDocument{\AtBeginDocument}
\HyperFirstAtBeginDocument{\ifx\hyper@anchor\@undefined
\global\let\oldcontentsline\contentsline
\gdef\contentsline#1#2#3#4{\oldcontentsline{#1}{#2}{#3}}
\global\let\oldnewlabel\newlabel
\gdef\newlabel#1#2{\newlabelxx{#1}#2}
\gdef\newlabelxx#1#2#3#4#5#6{\oldnewlabel{#1}{{#2}{#3}}}
\AtEndDocument{\ifx\hyper@anchor\@undefined
\let\contentsline\oldcontentsline
\let\newlabel\oldnewlabel
\fi}
\fi}
\global\let\hyper@last\relax 
\gdef\HyperFirstAtBeginDocument#1{#1}
\providecommand\HyField@AuxAddToFields[1]{}
\providecommand\HyField@AuxAddToCoFields[2]{}
\abx@aux@refcontext{cms/global//global/global}
\providecommand \oddpage@label [2]{}
\@writefile{toc}{\boolfalse {citerequest}\boolfalse {citetracker}\boolfalse {pagetracker}\boolfalse {backtracker}\relax }
\@writefile{lof}{\boolfalse {citerequest}\boolfalse {citetracker}\boolfalse {pagetracker}\boolfalse {backtracker}\relax }
\@writefile{lot}{\boolfalse {citerequest}\boolfalse {citetracker}\boolfalse {pagetracker}\boolfalse {backtracker}\relax }
\babel@aux{spanish}{}
\@writefile{toc}{\defcounter {refsection}{0}\relax }\@writefile{toc}{\contentsline {chapter}{\numberline {1}Primer Parcial}{5}{chapter.1}\protected@file@percent }
\@writefile{lof}{\defcounter {refsection}{0}\relax }\@writefile{lof}{\addvspace {10\p@ }}
\@writefile{lot}{\defcounter {refsection}{0}\relax }\@writefile{lot}{\addvspace {10\p@ }}
\@writefile{toc}{\defcounter {refsection}{0}\relax }\@writefile{toc}{\contentsline {section}{\numberline {1.1}Grupos}{5}{section.1.1}\protected@file@percent }
\zref@newlabel{mdf@pagelabel-1}{\default{1.1}\page{5}\abspage{5}\mdf@pagevalue{5}}
\zref@newlabel{mdf@pagelabel-2}{\default{1.1}\page{6}\abspage{6}\mdf@pagevalue{6}}
\zref@newlabel{mdf@pagelabel-3}{\default{1.1}\page{6}\abspage{6}\mdf@pagevalue{6}}
\zref@newlabel{mdf@pagelabel-4}{\default{1.1}\page{6}\abspage{6}\mdf@pagevalue{6}}
\zref@newlabel{mdf@pagelabel-5}{\default{1.1}\page{6}\abspage{6}\mdf@pagevalue{6}}
\zref@newlabel{mdf@pagelabel-6}{\default{1.1}\page{7}\abspage{7}\mdf@pagevalue{7}}
\zref@newlabel{mdf@pagelabel-7}{\default{1.1}\page{7}\abspage{7}\mdf@pagevalue{7}}
\zref@newlabel{mdf@pagelabel-8}{\default{1.1}\page{7}\abspage{7}\mdf@pagevalue{7}}
\zref@newlabel{mdf@pagelabel-9}{\default{1.1}\page{8}\abspage{8}\mdf@pagevalue{8}}
\zref@newlabel{mdf@pagelabel-10}{\default{1.1}\page{9}\abspage{9}\mdf@pagevalue{9}}
\zref@newlabel{mdf@pagelabel-11}{\default{1.1}\page{9}\abspage{9}\mdf@pagevalue{9}}
\zref@newlabel{mdf@pagelabel-12}{\default{}\page{12}\abspage{12}\mdf@pagevalue{12}}
\zref@newlabel{mdf@pagelabel-13}{\default{}\page{12}\abspage{12}\mdf@pagevalue{12}}
\@writefile{toc}{\defcounter {refsection}{0}\relax }\@writefile{toc}{\contentsline {section}{\numberline {1.2}Subgrupos}{16}{section.1.2}\protected@file@percent }
\zref@newlabel{mdf@pagelabel-14}{\default{1.2}\page{16}\abspage{16}\mdf@pagevalue{16}}
\@writefile{toc}{\defcounter {refsection}{0}\relax }\@writefile{toc}{\contentsline {paragraph}{Clases laterales}{17}{section*.2}\protected@file@percent }
\@writefile{toc}{\defcounter {refsection}{0}\relax }\@writefile{toc}{\contentsline {paragraph}{Afirmación 1.}{17}{section*.3}\protected@file@percent }
\@writefile{toc}{\defcounter {refsection}{0}\relax }\@writefile{toc}{\contentsline {paragraph}{Afirmación 2.}{18}{section*.4}\protected@file@percent }
\@writefile{toc}{\defcounter {refsection}{0}\relax }\@writefile{toc}{\contentsline {paragraph}{Afirmación 3.}{18}{section*.5}\protected@file@percent }
\@writefile{toc}{\defcounter {refsection}{0}\relax }\@writefile{toc}{\contentsline {paragraph}{Afirmación 4.}{18}{section*.6}\protected@file@percent }
\@writefile{toc}{\defcounter {refsection}{0}\relax }\@writefile{toc}{\contentsline {paragraph}{Afirmación 5.}{18}{section*.7}\protected@file@percent }
\@writefile{lof}{\defcounter {refsection}{0}\relax }\@writefile{lof}{\contentsline {figure}{\numberline {1.1}{\ignorespaces particiones de $S_3$ con $H = \{ e,\sigma \}$ \relax }}{19}{figure.caption.8}\protected@file@percent }
\providecommand*\caption@xref[2]{\@setref\relax\@undefined{#1}}
\newlabel{fig:particioness3}{{1.1}{19}{particiones de $S_3$ con $H = \{ e,\sigma \}$ \relax }{figure.caption.8}{}}
\zref@newlabel{mdf@pagelabel-15}{\default{1.2}\page{19}\abspage{19}\mdf@pagevalue{19}}
\@writefile{toc}{\defcounter {refsection}{0}\relax }\@writefile{toc}{\contentsline {paragraph}{Afirmación 1.}{20}{section*.9}\protected@file@percent }
\@writefile{toc}{\defcounter {refsection}{0}\relax }\@writefile{toc}{\contentsline {paragraph}{Afirmación 2}{20}{section*.10}\protected@file@percent }
\@writefile{lof}{\defcounter {refsection}{0}\relax }\@writefile{lof}{\contentsline {figure}{\numberline {1.2}{\ignorespaces diagrama conmutativo\relax }}{21}{figure.caption.11}\protected@file@percent }
\newlabel{fig:diagrama_conmutativo}{{1.2}{21}{diagrama conmutativo\relax }{figure.caption.11}{}}
\@writefile{toc}{\defcounter {refsection}{0}\relax }\@writefile{toc}{\contentsline {paragraph}{Afirmación 1}{21}{section*.12}\protected@file@percent }
\@writefile{toc}{\defcounter {refsection}{0}\relax }\@writefile{toc}{\contentsline {section}{\numberline {1.3}Grupos Cíclicos}{22}{section.1.3}\protected@file@percent }
\zref@newlabel{mdf@pagelabel-16}{\default{1.3}\page{22}\abspage{22}\mdf@pagevalue{22}}
\zref@newlabel{mdf@pagelabel-17}{\default{1.3}\page{23}\abspage{23}\mdf@pagevalue{23}}
\@writefile{toc}{\defcounter {refsection}{0}\relax }\@writefile{toc}{\contentsline {paragraph}{Existencia}{23}{section*.13}\protected@file@percent }
\@writefile{toc}{\defcounter {refsection}{0}\relax }\@writefile{toc}{\contentsline {paragraph}{Unicidad}{24}{section*.14}\protected@file@percent }
\zref@newlabel{mdf@pagelabel-18}{\default{1.3}\page{24}\abspage{24}\mdf@pagevalue{24}}
\@writefile{toc}{\defcounter {refsection}{0}\relax }\@writefile{toc}{\contentsline {chapter}{\numberline {2}Segundo Parcial}{27}{chapter.2}\protected@file@percent }
\@writefile{lof}{\defcounter {refsection}{0}\relax }\@writefile{lof}{\addvspace {10\p@ }}
\@writefile{lot}{\defcounter {refsection}{0}\relax }\@writefile{lot}{\addvspace {10\p@ }}
\@writefile{toc}{\defcounter {refsection}{0}\relax }\@writefile{toc}{\contentsline {section}{\numberline {2.1}Subgrupos Normales}{27}{section.2.1}\protected@file@percent }
\zref@newlabel{mdf@pagelabel-19}{\default{2.1}\page{27}\abspage{27}\mdf@pagevalue{27}}
\zref@newlabel{mdf@pagelabel-20}{\default{2.1}\page{27}\abspage{27}\mdf@pagevalue{27}}
\@writefile{toc}{\defcounter {refsection}{0}\relax }\@writefile{toc}{\contentsline {section}{\numberline {2.2}Grupos Cocientes}{28}{section.2.2}\protected@file@percent }
\zref@newlabel{mdf@pagelabel-21}{\default{2.2}\page{28}\abspage{28}\mdf@pagevalue{28}}
\zref@newlabel{mdf@pagelabel-22}{\default{2.2}\page{29}\abspage{29}\mdf@pagevalue{29}}
\@writefile{toc}{\defcounter {refsection}{0}\relax }\@writefile{toc}{\contentsline {section}{\numberline {2.3}Homomorfismos}{30}{section.2.3}\protected@file@percent }
\zref@newlabel{mdf@pagelabel-23}{\default{2.3}\page{31}\abspage{31}\mdf@pagevalue{31}}
\zref@newlabel{mdf@pagelabel-24}{\default{2.3}\page{33}\abspage{33}\mdf@pagevalue{33}}
\@writefile{toc}{\defcounter {refsection}{0}\relax }\@writefile{toc}{\contentsline {subsection}{\numberline {2.3.1}Teoremas de Isomorfismos}{34}{subsection.2.3.1}\protected@file@percent }
\@writefile{toc}{\defcounter {refsection}{0}\relax }\@writefile{toc}{\contentsline {subsection}{\numberline {2.3.2}Automorfismos}{36}{subsection.2.3.2}\protected@file@percent }
\zref@newlabel{mdf@pagelabel-25}{\default{2.3.2}\page{36}\abspage{36}\mdf@pagevalue{36}}
\zref@newlabel{mdf@pagelabel-26}{\default{2.3.2}\page{37}\abspage{37}\mdf@pagevalue{37}}
\zref@newlabel{mdf@pagelabel-27}{\default{2.3.2}\page{37}\abspage{37}\mdf@pagevalue{37}}
\@writefile{toc}{\defcounter {refsection}{0}\relax }\@writefile{toc}{\contentsline {section}{\numberline {2.4}Acciones de Grupo}{38}{section.2.4}\protected@file@percent }
\zref@newlabel{mdf@pagelabel-28}{\default{2.4}\page{38}\abspage{38}\mdf@pagevalue{38}}
\zref@newlabel{mdf@pagelabel-29}{\default{2.4}\page{39}\abspage{39}\mdf@pagevalue{39}}
\@writefile{toc}{\defcounter {refsection}{0}\relax }\@writefile{toc}{\contentsline {chapter}{\numberline {3}Tercer Parcial}{43}{chapter.3}\protected@file@percent }
\@writefile{lof}{\defcounter {refsection}{0}\relax }\@writefile{lof}{\addvspace {10\p@ }}
\@writefile{lot}{\defcounter {refsection}{0}\relax }\@writefile{lot}{\addvspace {10\p@ }}
\@writefile{toc}{\defcounter {refsection}{0}\relax }\@writefile{toc}{\contentsline {section}{\numberline {3.1}Teoremas de Sylow}{43}{section.3.1}\protected@file@percent }
\zref@newlabel{mdf@pagelabel-30}{\default{3.1}\page{44}\abspage{44}\mdf@pagevalue{44}}
\zref@newlabel{mdf@pagelabel-31}{\default{3.1}\page{44}\abspage{44}\mdf@pagevalue{44}}
\zref@newlabel{mdf@pagelabel-32}{\default{3.1}\page{45}\abspage{45}\mdf@pagevalue{45}}
\zref@newlabel{mdf@pagelabel-33}{\default{3.1}\page{45}\abspage{45}\mdf@pagevalue{45}}
\zref@newlabel{mdf@pagelabel-34}{\default{3.1}\page{45}\abspage{45}\mdf@pagevalue{45}}
\@writefile{toc}{\defcounter {refsection}{0}\relax }\@writefile{toc}{\contentsline {section}{\numberline {3.2}Producto Directo de Grupos}{48}{section.3.2}\protected@file@percent }
\zref@newlabel{mdf@pagelabel-35}{\default{3.2}\page{49}\abspage{49}\mdf@pagevalue{49}}
\@writefile{toc}{\defcounter {refsection}{0}\relax }\@writefile{toc}{\contentsline {section}{\numberline {3.3}Grupo Simétrico}{49}{section.3.3}\protected@file@percent }
\zref@newlabel{mdf@pagelabel-36}{\default{3.3}\page{49}\abspage{49}\mdf@pagevalue{49}}
\zref@newlabel{mdf@pagelabel-37}{\default{3.3}\page{50}\abspage{50}\mdf@pagevalue{50}}
\@writefile{toc}{\defcounter {refsection}{0}\relax }\@writefile{toc}{\contentsline {paragraph}{Existencia}{50}{section*.15}\protected@file@percent }
\zref@newlabel{mdf@pagelabel-38}{\default{3.3}\page{52}\abspage{52}\mdf@pagevalue{52}}
\zref@newlabel{mdf@pagelabel-39}{\default{3.3}\page{53}\abspage{53}\mdf@pagevalue{53}}
\@writefile{toc}{\defcounter {refsection}{0}\relax }\@writefile{toc}{\contentsline {section}{\numberline {3.4}Grupos Abelianos Finitos y Finitamente Generados}{56}{section.3.4}\protected@file@percent }
\zref@newlabel{mdf@pagelabel-40}{\default{3.4}\page{57}\abspage{57}\mdf@pagevalue{57}}
\@writefile{toc}{\defcounter {refsection}{0}\relax }\@writefile{toc}{\contentsline {section}{\numberline {3.5}Grupos Solubles y Nilpotentes}{59}{section.3.5}\protected@file@percent }
